<?xml version="1.0" encoding="utf-8"?>
<!-- Generator: Adobe Illustrator 18.1.1, SVG Export Plug-In . SVG Version: 6.00 Build 0)  -->
<svg version="1.1" xmlns="http://www.w3.org/2000/svg" xmlns:xlink="http://www.w3.org/1999/xlink" x="0px" y="0px"
	 viewBox="0 0 800 859.8" enable-background="new 0 0 800 859.8" xml:space="preserve">
<g id="Laag_1" display="none">
	<rect id="XMLID_1_" y="-210.7" display="inline" stroke="#000000" stroke-miterlimit="10" width="800" height="1280"/>
</g>
<g id="Laag_2">
	<path id="XMLID_56_" fill="#B2B2B2" stroke="#B2B2B2" stroke-miterlimit="10" d="M125.1,782.3l-13.7-16.1c0,0-1.5-100.6-8.6-117.9
		c-5.4-13.3-22.7-46.6-30.5-71.8c-2.4-7.7-3.9-14.6-3.9-20c0,0,123-22.9,193.7-2.5c10.3,3-32,77-39.1,94.3
		c-7.1,17.3-8.6,117.9-8.6,117.9l-13.7,16.1"/>
	<path id="XMLID_58_" fill="#B2B2B2" stroke="#B2B2B2" stroke-miterlimit="10" d="M678,500.4l13.7-16.1c0,0,1.5-100.6,8.6-117.9
		c5.4-13.3,22.7-46.6,30.5-71.8c2.4-7.7,3.9-14.6,3.9-20c0,0-123-22.9-193.7-2.5c-10.3,3,32,77,39.1,94.3
		c7.1,17.3,8.6,117.9,8.6,117.9l13.7,16.1"/>
	<g id="XMLID_8_">
		<path id="XMLID_9_" fill="#FFFFFF" d="M185.9,45.4l-115.7,0V15.7l254.4,0v29.7H219.8v240.7h-33.9V45.4z"/>
	</g>
	<g id="XMLID_12_">
		<path id="XMLID_13_" fill="#FFFFFF" d="M370.2,478.8l-26.9,90.5h-34.6l88.1-275.9h40.4l88.5,275.9h-35.8l-27.7-90.5H370.2z
			 M455.2,451.5l-25.4-77.8c-5.8-17.7-9.6-33.7-13.5-49.4h-0.8c-3.8,16-8.1,32.5-13.1,48.9l-25.4,78.2H455.2z"/>
	</g>
	<g id="XMLID_2_">
		<path id="XMLID_6_" fill="#FFFFFF" d="M432.9,15.7v270.4h-33.5V15.7H432.9z"/>
	</g>
	<g id="XMLID_32_">
		<g id="XMLID_22_">
			<path id="XMLID_23_" fill="#FFFFFF" d="M180,783.1h-33.9l0.1-205.9H66.9v-33.3h191.9l-9.2,21.8L180,577.2L180,783.1z"/>
		</g>
		<g id="XMLID_10_">
			<path id="XMLID_11_" fill="#FFFFFF" d="M126.7,543.7c13.5,6.8,35.1-0.2,55.5-0.2c63.1,0,99.6-42.5,99.6-108.7
				c0-71-40.4-111.2-101.2-111.5c-9.1-0.1-46.5-0.2-60.4-0.2v-29.1c9.9,0,29.2,0,61.5,0c80.4,0,135.4,57.4,135.4,142
				c0,88.7-48.6,141.3-121.7,141.3c-31.5,0-56.1,0.9-71.8,0L126.7,543.7z"/>
		</g>
	</g>
	<g id="XMLID_33_">
		<path id="XMLID_34_" fill="#FFFFFF" d="M539.1,710.1c0,93.1-54.2,142.4-120.4,142.4c-68.5,0-116.6-55.4-116.6-137.2
			c0-85.9,51.2-142,120.4-142C493.4,573.3,539.1,629.9,539.1,710.1z M337.9,714.5c0,57.8,30,109.5,82.7,109.5
			c53.1,0,83.1-51,83.1-112.3c0-53.8-26.9-109.9-82.7-109.9C365.6,601.8,337.9,655.1,337.9,714.5z"/>
	</g>
	<g id="XMLID_4_">
		<path id="XMLID_5_" fill="#FFFFFF" d="M705.6,725H604.8v97.5h112.3v29.3H571.3V581.4h140v29.3H604.8v85.5h100.8V725z"/>
	</g>
	<g id="XMLID_3_">
		<g id="XMLID_14_">
			<path id="XMLID_26_" fill="#FFFFFF" d="M679.5,294.7c-15.7,0.9-40.2,0-71.8,0C534.7,294.7,486,242,486,153.4
				c0-84.7,55-142,135.4-142c32.3,0,51.7,0,61.5,0v29.1c-13.9,0-51.3,0.2-60.4,0.2C561.8,41,521.4,81.1,521.4,152.2
				c0,66.2,36.5,108.7,99.6,108.7c20.4,0,42,7.1,55.5,0.2L679.5,294.7z"/>
		</g>
	</g>
	<g id="XMLID_76_">
		<g id="XMLID_80_">
			<path id="XMLID_81_" fill="#FFFFFF" d="M623.2,294.7l-69.6-11.6l-9.2-21.8h191.9v33.3h-79.2l0.1,205.9h-33.9L623.2,294.7z"/>
		</g>
		<g id="XMLID_77_">
			<path id="XMLID_78_" fill="#FFFFFF" d="M679.5,294.7c-15.7,0.9-40.2,0-71.8,0C534.7,294.7,486,242,486,153.4
				c0-84.7,55-142,135.4-142c32.3,0,51.7,0,61.5,0v29.1c-13.9,0-51.3,0.2-60.4,0.2C561.8,41,521.4,81.1,521.4,152.2
				c0,66.2,36.5,108.7,99.6,108.7c20.4,0,42,7.1,55.5,0.2L679.5,294.7z"/>
		</g>
	</g>
	<g id="XMLID_69_">
		<g id="XMLID_73_">
			<path id="XMLID_74_" fill="#FFFFFF" d="M623.1,295.3l-69.6-11.6l-9.2-21.8h191.9v33.3h-79.2l0.1,205.9h-33.9L623.1,295.3z"/>
		</g>
		<g id="XMLID_70_">
			<path id="XMLID_71_" fill="#FFFFFF" d="M679.4,295.3c-15.7,0.9-40.2,0-71.8,0c-73.1,0-121.7-52.6-121.7-141.3
				c0-84.7,55-142,135.4-142c32.3,0,51.7,0,61.5,0V41c-13.9,0-51.3,0.2-60.4,0.2c-60.8,0.4-101.2,40.5-101.2,111.5
				c0,66.2,36.5,108.7,99.6,108.7c20.4,0,42,7.1,55.5,0.2L679.4,295.3z"/>
		</g>
	</g>
	<g id="XMLID_15_">
		<polygon id="XMLID_39_" fill="#B2B2B2" stroke="#B2B2B2" stroke-miterlimit="10" points="666.5,525.5 666.5,517.8 612.5,517.8 
			612.5,531.8 619.1,531.8 621.2,525.2 		"/>
		
			<line id="XMLID_38_" fill="#B2B2B2" stroke="#B2B2B2" stroke-width="4" stroke-linecap="round" stroke-miterlimit="10" x1="664.9" y1="539" x2="614.3" y2="536.1"/>
		
			<line id="XMLID_31_" fill="#B2B2B2" stroke="#B2B2B2" stroke-width="4" stroke-linecap="round" stroke-miterlimit="10" x1="664.9" y1="546.4" x2="614.3" y2="543.5"/>
		
			<line id="XMLID_25_" fill="#B2B2B2" stroke="#B2B2B2" stroke-width="4" stroke-linecap="round" stroke-miterlimit="10" x1="663.5" y1="554.4" x2="614.3" y2="551.5"/>
		<g id="XMLID_18_">
			<polygon id="XMLID_19_" fill="#B2B2B2" stroke="#B2B2B2" stroke-width="3" stroke-miterlimit="10" points="661.4,561 
				618.7,558.4 623.4,563.8 655.5,563.8 659.2,563.8 			"/>
		</g>
		
			<line id="XMLID_17_" fill="#B2B2B2" stroke="#B2B2B2" stroke-width="4" stroke-linecap="round" stroke-miterlimit="10" x1="665.1" y1="531.6" x2="625.1" y2="529.6"/>
		
			<polygon id="XMLID_16_" fill="#B2B2B2" stroke="#B2B2B2" stroke-width="3" stroke-linecap="round" stroke-miterlimit="10" points="
			675.3,501.5 663.9,513.6 615.6,513.6 604.3,501.4 		"/>
	</g>
	<polygon id="XMLID_7_" fill="#B2B2B2" stroke="#B2B2B2" stroke-width="3" stroke-linecap="round" stroke-miterlimit="10" points="
		650,565.8 647.7,568.8 633.8,568.8 631.8,565.8 	"/>
	<g id="XMLID_41_">
		<polygon id="XMLID_61_" fill="#B2B2B2" stroke="#B2B2B2" stroke-miterlimit="10" points="189.5,807.5 189.5,799.8 135.5,799.8 
			135.5,813.8 142.1,813.8 144.2,807.2 		"/>
		
			<line id="XMLID_60_" fill="#B2B2B2" stroke="#B2B2B2" stroke-width="4" stroke-linecap="round" stroke-miterlimit="10" x1="187.9" y1="821" x2="137.3" y2="818.1"/>
		
			<line id="XMLID_59_" fill="#B2B2B2" stroke="#B2B2B2" stroke-width="4" stroke-linecap="round" stroke-miterlimit="10" x1="187.9" y1="828.4" x2="137.3" y2="825.5"/>
		
			<line id="XMLID_57_" fill="#B2B2B2" stroke="#B2B2B2" stroke-width="4" stroke-linecap="round" stroke-miterlimit="10" x1="186.5" y1="836.4" x2="137.3" y2="833.5"/>
		<g id="XMLID_53_">
			<polygon id="XMLID_54_" fill="#B2B2B2" stroke="#B2B2B2" stroke-width="3" stroke-miterlimit="10" points="184.4,843 
				141.7,840.4 146.4,845.8 178.5,845.8 182.2,845.8 			"/>
		</g>
		
			<line id="XMLID_43_" fill="#B2B2B2" stroke="#B2B2B2" stroke-width="4" stroke-linecap="round" stroke-miterlimit="10" x1="188.1" y1="813.6" x2="148.1" y2="811.6"/>
		
			<polygon id="XMLID_42_" fill="#B2B2B2" stroke="#B2B2B2" stroke-width="3" stroke-linecap="round" stroke-miterlimit="10" points="
			198.3,783.5 186.9,795.6 138.6,795.6 127.3,783.4 		"/>
	</g>
	<polygon id="XMLID_40_" fill="#B2B2B2" stroke="#B2B2B2" stroke-width="3" stroke-linecap="round" stroke-miterlimit="10" points="
		173,847.8 170.7,850.8 156.8,850.8 154.8,847.8 	"/>
	
		<radialGradient id="XMLID_47_" cx="628.2144" cy="151.4175" r="103.0925" gradientTransform="matrix(1.1486 0 0 1 -79.9592 0)" gradientUnits="userSpaceOnUse">
		<stop  offset="0" style="stop-color:#2E3192"/>
		<stop  offset="0.1471" style="stop-color:#2D2F8D"/>
		<stop  offset="0.316" style="stop-color:#282B7F"/>
		<stop  offset="0.4958" style="stop-color:#212368"/>
		<stop  offset="0.6832" style="stop-color:#171848"/>
		<stop  offset="0.8745" style="stop-color:#0A0A1F"/>
		<stop  offset="1" style="stop-color:#000000"/>
	</radialGradient>
	
		<radialGradient id="XMLID_48_" cx="628.2144" cy="151.4175" r="103.5925" gradientTransform="matrix(1.1486 0 0 1 -79.9592 0)" gradientUnits="userSpaceOnUse">
		<stop  offset="0" style="stop-color:#FFFFFF"/>
		<stop  offset="1" style="stop-color:#000000"/>
	</radialGradient>
	
		<ellipse id="XMLID_44_" fill="url(#XMLID_47_)" stroke="url(#XMLID_48_)" stroke-miterlimit="10" cx="641.6" cy="151.4" rx="118.4" ry="103.1"/>
	
		<radialGradient id="XMLID_49_" cx="210.3044" cy="437.4175" r="103.0925" gradientTransform="matrix(1.1486 0 0 1 -79.9592 0)" gradientUnits="userSpaceOnUse">
		<stop  offset="0" style="stop-color:#FF0000"/>
		<stop  offset="0.1077" style="stop-color:#FA0000"/>
		<stop  offset="0.2314" style="stop-color:#EC0000"/>
		<stop  offset="0.3631" style="stop-color:#D50000"/>
		<stop  offset="0.5005" style="stop-color:#B50000"/>
		<stop  offset="0.6422" style="stop-color:#8B0000"/>
		<stop  offset="0.7876" style="stop-color:#590000"/>
		<stop  offset="0.9332" style="stop-color:#1E0000"/>
		<stop  offset="1" style="stop-color:#000000"/>
	</radialGradient>
	
		<radialGradient id="XMLID_50_" cx="210.3044" cy="437.4175" r="103.5925" gradientTransform="matrix(1.1486 0 0 1 -79.9592 0)" gradientUnits="userSpaceOnUse">
		<stop  offset="0" style="stop-color:#FFFFFF"/>
		<stop  offset="1" style="stop-color:#000000"/>
	</radialGradient>
	
		<ellipse id="XMLID_45_" fill="url(#XMLID_49_)" stroke="url(#XMLID_50_)" stroke-miterlimit="10" cx="161.6" cy="437.4" rx="118.4" ry="103.1"/>
</g>
</svg>
